<?xml version="1.0" encoding="UTF-8" standalone="no"?>
<svg
   xmlns:dc="http://purl.org/dc/elements/1.1/"
   xmlns:cc="http://creativecommons.org/ns#"
   xmlns:rdf="http://www.w3.org/1999/02/22-rdf-syntax-ns#"
   xmlns:svg="http://www.w3.org/2000/svg"
   xmlns="http://www.w3.org/2000/svg"
   version="1.1"
   id="svg2"
   viewBox="0 0 850.00001 850.00001"
   height="850"
   width="850">
  <metadata
     id="metadata7">
    <rdf:RDF>
      <cc:Work
         rdf:about="">
        <dc:format>image/svg+xml</dc:format>
        <dc:type
           rdf:resource="http://purl.org/dc/dcmitype/StillImage" />
        <dc:title></dc:title>
      </cc:Work>
    </rdf:RDF>
  </metadata>
  <g
     transform="translate(0,-202.36216)"
     id="layer1">
    <path
       id="path3347"
       d="m 158.95224,928.36279 c -16.23325,-3.32494 -28.83962,-13.15302 -36.26977,-28.27637 -3.98237,-8.10575 -4.20549,-9.24586 -4.20549,-21.48995 0,-12.1575 0.2426,-13.42286 4.06022,-21.17755 5.40285,-10.97474 14.05761,-19.67748 24.44801,-24.58353 l 8.28746,-3.9131 264.8858,-0.31769 c 243.09065,-0.29157 265.39393,-0.15163 271.06157,1.70079 29.90631,9.77459 44.34098,42.46396 31.05131,70.32016 -7.29147,15.28352 -21.22561,25.42025 -38.66194,28.12559 -13.19402,2.04712 -514.5785,1.676 -524.65717,-0.38835 z M 136.26156,724.69583 c 0,-5.32441 15.17132,-37.87495 25.7734,-55.29766 39.45323,-64.8346 103.62841,-113.6618 177.21618,-134.8336 46.72502,-13.44317 97.92693,-15.10959 146.93229,-4.78207 55.65274,11.72842 107.03157,39.12786 149.1005,79.51274 22.0033,21.12251 45.45923,53.13438 59.37276,81.02995 6.01478,12.05921 14.39112,32.01191 14.39112,34.2801 0,1.69037 -6.04703,1.90023 -54.27364,1.88355 -29.85051,-0.01 -54.8574,-0.42428 -55.57088,-0.91989 -0.71348,-0.49562 -3.95123,-4.88876 -7.195,-9.76255 -30.81145,-46.29442 -77.74201,-77.23975 -133.78442,-88.21548 -17.23827,-3.37607 -57.02952,-3.0358 -74.20464,0.63455 -55.10901,11.77685 -99.7536,41.51148 -130.06953,86.63018 -3.62613,5.3967 -7.16623,10.21768 -7.8669,10.7133 -0.70066,0.49561 -25.69709,0.90956 -55.54759,0.91989 -47.06125,0.0163 -54.27365,-0.22199 -54.27365,-1.79301 z M 124.30439,589.73011 c -4.2154,-0.91572 -10.33779,-3.12001 -13.60532,-4.89842 -3.9523,-2.15112 -19.946549,-17.26515 -47.781593,-45.15204 C 24.046939,500.73671 20.803914,497.15791 17.231984,489.26401 5.84389,464.09654 16.274794,435.09582 41.022226,423.12069 c 9.7108,-4.699 19.847178,-6.26229 29.596491,-4.56451 16.840823,2.9327 18.242089,4.01928 64.052123,49.66749 38.6369,38.50041 42.27027,42.48087 45.99461,50.3883 3.8086,8.08634 4.04377,9.37031 4.04377,22.07741 0,12.8756 -0.18894,13.86826 -4.13737,21.73584 -4.59776,9.16148 -13.83151,18.74619 -22.14627,22.98807 -5.20156,2.65363 -19.27311,6.20497 -24.0038,6.058 -1.34918,-0.0419 -5.902,-0.82545 -10.11739,-1.74118 z m 574.89808,0.11996 C 684.5018,586.62172 671.465,576.2213 664.5258,562.18588 c -3.38969,-6.85606 -3.98343,-9.48607 -4.34883,-19.2636 -0.49049,-13.12461 1.48178,-20.74208 7.88209,-30.44288 2.22535,-3.37294 22.15506,-24.10874 44.28821,-46.07957 44.01607,-43.69324 45.81704,-45.07097 62.69165,-47.95881 6.9119,-1.18287 9.70524,-1.07329 17.62651,0.69146 33.13048,7.38103 49.46868,42.64428 34.01428,73.41414 -3.69009,7.34705 -84.0401,87.91501 -91.99509,92.24467 -5.9433,3.23474 -19.8698,6.84819 -25.63681,6.65187 -1.68647,-0.0574 -6.11687,-0.7743 -9.84534,-1.59309 z M 406.09664,469.33279 c -13.59888,-4.85994 -24.95732,-15.83627 -30.87005,-29.83156 -2.82655,-6.69035 -2.85311,-7.22275 -3.2274,-64.67779 -0.23598,-36.2244 0.0964,-60.49468 0.88692,-64.77125 3.37535,-18.2589 17.42638,-33.68601 35.57956,-39.06403 28.34011,-8.39597 58.31152,10.18836 63.84604,39.58893 1.57172,8.3492 1.64615,109.82229 0.0876,119.33754 -2.58925,15.80743 -13.33414,30.00691 -27.94279,36.92668 -7.42716,3.51808 -9.61307,3.96429 -20.57524,4.20012 -8.73169,0.18784 -13.85532,-0.30441 -17.78459,-1.70864 z"
        />
  </g>
</svg>
